…
#>   src_tbls():           ... 5 values
#> 
#> tbl_data() %>% head():
#> # A tibble: 6 x 7
#>             dataset          location         param       date value  flag
#>               <chr>             <chr>         <chr>     <date> <dbl> <chr>
#> 1 ecclimate_monthly SABLE ISLAND 6454 mean_max_temp 1897-01-01    NA     M
#> 2 ecclimate_monthly SABLE ISLAND 6454 mean_max_temp 1897-02-01    NA     M
#> 3 ecclimate_monthly SABLE ISLAND 6454 mean_max_temp 1897-03-01    NA     M
#> 4 ecclimate_monthly SABLE ISLAND 6454 mean_max_temp 1897-04-01    NA     M
#> 5 ecclimate_monthly SABLE ISLAND 6454 mean_max_temp 1897-05-01    NA     M
#> 6 ecclimate_monthly SABLE ISLAND 6454 mean_max_temp 1897-06-01    NA     M
#> # ... with 1 more variables: flag_text <chr>
summary(ns_climate)
#> # A tibble: 137 x 7
#>              param             location           dataset mean_value
#>              <chr>                <chr>             <chr>      <dbl>
#>  1 dir_of_max_gust    SABLE ISLAND 6454 ecclimate_monthly   19.77258
#>  2   extr_max_temp ANNAPOLIS ROYAL 6289 ecclimate_monthly   19.93257
#>  3   extr_max_temp         BADDECK 6297 ecclimate_monthly   18.85291
#>  4   extr_max_temp      BEAVERBANK 6301 ecclimate_monthly   17.22857
#>  5   extr_max_temp    COLLEGEVILLE 6329 ecclimate_monthly   20.33914
#>  6   extr_max_temp           DIGBY 6338 ecclimate_monthly   19.04834
#>  7   extr_max_temp   KENTVILLE CDA 6375 ecclimate_monthly   21.00661
#>  8   extr_max_temp      MAHONE BAY 6396 ecclimate_monthly   20.76598
#>  9   extr_max_temp   MOUNT UNIACKE 6413 ecclimate_monthly   19.67059
#> 10   extr_max_temp      NAPPAN CDA 6414 ecclimate_monthly   19.33575
#> # ... with 127 more rows, and 3 more variables: sd_value <dbl>, n <int>,
#> #   n_NA <int>
…
You can extract the data from the object using `tbl_data()` or `tbl_data_wide()`:

``` r
ns_climate %>% tbl_data()
#> # A tibble: 115,541 x 7
#>              dataset          location         param       date value
#>                <chr>             <chr>         <chr>     <date> <dbl>
#>  1 ecclimate_monthly SABLE ISLAND 6454 mean_max_temp 1897-01-01    NA
#>  2 ecclimate_monthly SABLE ISLAND 6454 mean_max_temp 1897-02-01    NA
#>  3 ecclimate_monthly SABLE ISLAND 6454 mean_max_temp 1897-03-01    NA
#>  4 ecclimate_monthly SABLE ISLAND 6454 mean_max_temp 1897-04-01    NA
#>  5 ecclimate_monthly SABLE ISLAND 6454 mean_max_temp 1897-05-01    NA
#>  6 ecclimate_monthly SABLE ISLAND 6454 mean_max_temp 1897-06-01    NA
#>  7 ecclimate_monthly SABLE ISLAND 6454 mean_max_temp 1897-07-01    NA
#>  8 ecclimate_monthly SABLE ISLAND 6454 mean_max_temp 1897-08-01    NA
#>  9 ecclimate_monthly SABLE ISLAND 6454 mean_max_temp 1897-09-01    NA
#> 10 ecclimate_monthly SABLE ISLAND 6454 mean_max_temp 1897-10-01  12.2
#> # ... with 115,531 more rows, and 2 more variables: flag <chr>,
#> #   flag_text <chr>
ns_climate %>% tbl_data_wide()
#> # A tibble: 14,311 x 14
#>              dataset             location       date dir_of_max_gust
#>  *             <chr>                <chr>     <date>           <dbl>
#>  1 ecclimate_monthly ANNAPOLIS ROYAL 6289 1914-01-01              NA
#>  2 ecclimate_monthly ANNAPOLIS ROYAL 6289 1914-02-01              NA
#>  3 ecclimate_monthly ANNAPOLIS ROYAL 6289 1914-03-01              NA
#>  4 ecclimate_monthly ANNAPOLIS ROYAL 6289 1914-04-01              NA
#>  5 ecclimate_monthly ANNAPOLIS ROYAL 6289 1914-05-01              NA
#>  6 ecclimate_monthly ANNAPOLIS ROYAL 6289 1914-06-01              NA
#>  7 ecclimate_monthly ANNAPOLIS ROYAL 6289 1914-07-01              NA
#>  8 ecclimate_monthly ANNAPOLIS ROYAL 6289 1914-08-01              NA
#>  9 ecclimate_monthly ANNAPOLIS ROYAL 6289 1914-09-01              NA
#> 10 ecclimate_monthly ANNAPOLIS ROYAL 6289 1914-10-01              NA
#> # ... with 14,301 more rows, and 10 more variables: extr_max_temp <dbl>,
#> #   extr_min_temp <dbl>, mean_max_temp <dbl>, mean_min_temp <dbl>,
#> #   mean_temp <dbl>, snow_grnd_last_day <dbl>, spd_of_max_gust <dbl>,
#> #   total_precip <dbl>, total_rain <dbl>, total_snow <dbl>
```
…
#> 13 ecclimate_monthly ST MARGARET'S BAY 6456 ST MARGARET'S BAY NOVA SCOTIA
#> 14 ecclimate_monthly       SPRINGFIELD 6473       SPRINGFIELD NOVA SCOTIA
#> 15 ecclimate_monthly   UPPER STEWIACKE 6495   UPPER STEWIACKE NOVA SCOTIA
#> # ... with 15 more variables: climate_id <chr>, station_id <int>,
#> #   wmo_id <int>, tc_id <chr>, latitude <dbl>, longitude <dbl>,
#> #   elevation <dbl>, first_year <int>, last_year <int>,
#> #   hly_first_year <int>, hly_last_year <int>, dly_first_year <int>,
#> #   dly_last_year <int>, mly_first_year <int>, mly_last_year <int>
ns_climate %>% tbl_datasets()
#> # A tibble: 1 x 2
#>             dataset                           url
#>               <chr>                         <chr>
#> 1 ecclimate_monthly http://climate.weather.gc.ca/
ns_climate %>% tbl_columns()
#> # A tibble: 32 x 5
#>              dataset     table    column      type
#>                <chr>     <chr>     <chr>     <chr>
#>  1 ecclimate_monthly      data   dataset character
#>  2 ecclimate_monthly      data  location character
#>  3 ecclimate_monthly      data     param character
#>  4 ecclimate_monthly      data      date      date
#>  5 ecclimate_monthly      data     value    double
#>  6 ecclimate_monthly      data      flag character
#>  7 ecclimate_monthly      data flag_text character
#>  8 ecclimate_monthly locations   dataset character
#>  9 ecclimate_monthly locations  location character
#> 10 ecclimate_monthly locations      name character
#> # ... with 22 more rows, and 1 more variables: description <chr>
```
…
Here, `depth` is the depth in the core, and `Ca`, `Ti`, and `V` are elemental concentrations in the sediment. To get this into parameter-long format, we need to use the `gather()` function in the **tidyr** package, and rename the `core` column to `location`.

``` r
poc_maj_long <- poc_maj %>%
  gather(Ca, Ti, V, key = "param", value = "value") %>%
  rename(location = core)
poc_maj_long
#> # A tibble: 36 x 4
#>    location depth param    value
#>       <chr> <int> <chr>    <dbl>
#>  1    MAJ-1     0    Ca 1884.667
#>  2    MAJ-1     1    Ca 1418.000
#>  3    MAJ-1     2    Ca 1550.000
#>  4    MAJ-1     3    Ca 1448.000
#>  5    MAJ-1     4    Ca 1247.000
#>  6    MAJ-1     5    Ca 1412.333
#>  7    POC-2     0    Ca 1622.000
#>  8    POC-2     1    Ca 1488.000
#>  9    POC-2     2    Ca 2416.000
#> 10    POC-2     3    Ca 2253.000
#> # ... with 26 more rows
```
…
