Using mudata objects • mudata2
…
The summary() function provides some numeric summaries by dataset, location, and parameter if the value column of the data table is numeric (if it isn’t, it provides counts instead).

summary(ns_climate)

## # A tibble: 137 x 7
##    param         location         dataset        mean_value sd_value     n  n_NA
##    <chr>         <chr>            <chr>               <dbl>    <dbl> <int> <int>
##  1 dir_of_max_g… SABLE ISLAND 64… ecclimate_mon…       19.8    10.2    299     0
##  2 extr_max_temp ANNAPOLIS ROYAL… ecclimate_mon…       19.9     7.24   995    28
##  3 extr_max_temp BADDECK 6297     ecclimate_mon…       18.9     8.58   901    43
##  4 extr_max_temp BEAVERBANK 6301  ecclimate_mon…       17.2    10.4     24    17
##  5 extr_max_temp COLLEGEVILLE 63… ecclimate_mon…       20.3     8.54  1061    34
##  6 extr_max_temp DIGBY 6338       ecclimate_mon…       19.0     6.92   624    20
##  7 extr_max_temp KENTVILLE CDA 6… ecclimate_mon…       21.0     8.27  1002     3
##  8 extr_max_temp MAHONE BAY 6396  ecclimate_mon…       20.8     8.35   108    11
##  9 extr_max_temp MOUNT UNIACKE 6… ecclimate_mon…       19.7     8.21   972    30
## 10 extr_max_temp NAPPAN CDA 6414  ecclimate_mon…       19.3     8.04  1121    19
## # … with 127 more rows
…
Extracting data

The data is stored in the data table (i.e., tbl_data()) in parameter-long form (that is, one row per measurement rather than one row per observation). This has advantages in that information about each measurement can be stored next to the value (e.g., standard deviation, notes, etc.), however it is rarely the form required for analysis. To extract data in parameter-long form, you can use tbl_data():

ns_climate %>% tbl_data()

## # A tibble: 115,541 x 7
##    dataset          location        param       date       value flag  flag_text
##    <chr>            <chr>           <chr>       <date>     <dbl> <chr> <chr>    
##  1 ecclimate_month… SABLE ISLAND 6… mean_max_t… 1897-01-01  NA   M     Missing  
##  2 ecclimate_month… SABLE ISLAND 6… mean_max_t… 1897-02-01  NA   M     Missing  
##  3 ecclimate_month… SABLE ISLAND 6… mean_max_t… 1897-03-01  NA   M     Missing  
##  4 ecclimate_month… SABLE ISLAND 6… mean_max_t… 1897-04-01  NA   M     Missing  
##  5 ecclimate_month… SABLE ISLAND 6… mean_max_t… 1897-05-01  NA   M     Missing  
##  6 ecclimate_month… SABLE ISLAND 6… mean_max_t… 1897-06-01  NA   M     Missing  
##  7 ecclimate_month… SABLE ISLAND 6… mean_max_t… 1897-07-01  NA   M     Missing  
##  8 ecclimate_month… SABLE ISLAND 6… mean_max_t… 1897-08-01  NA   M     Missing  
##  9 ecclimate_month… SABLE ISLAND 6… mean_max_t… 1897-09-01  NA   M     Missing  
## 10 ecclimate_month… SABLE ISLAND 6… mean_max_t… 1897-10-01  12.2 <NA>  <NA>     
## # … with 115,531 more rows

To extract data in a more standard parameter-wide form, you can use tbl_data_wide():

ns_climate %>% tbl_data_wide()

## # A tibble: 14,311 x 14
##    dataset location date       dir_of_max_gust extr_max_temp extr_min_temp
##    <chr>   <chr>    <date>               <dbl>         <dbl>         <dbl>
##  1 ecclim… ANNAPOL… 1914-01-01              NA          NA            NA  
##  2 ecclim… ANNAPOL… 1914-02-01              NA          NA            NA  
##  3 ecclim… ANNAPOL… 1914-03-01              NA          NA            NA  
##  4 ecclim… ANNAPOL… 1914-04-01              NA          19.4         -11.1
##  5 ecclim… ANNAPOL… 1914-05-01              NA          30            -3.9
##  6 ecclim… ANNAPOL… 1914-06-01              NA          26.7          -1.7
##  7 ecclim… ANNAPOL… 1914-07-01              NA          30             3.9
##  8 ecclim… ANNAPOL… 1914-08-01              NA          NA            NA  
##  9 ecclim… ANNAPOL… 1914-09-01              NA          NA            NA  
## 10 ecclim… ANNAPOL… 1914-10-01              NA          NA            NA  
## # … with 14,301 more rows, and 8 more variables: mean_max_temp <dbl>,
## #   mean_min_temp <dbl>, mean_temp <dbl>, snow_grnd_last_day <dbl>,
## #   spd_of_max_gust <dbl>, total_precip <dbl>, total_rain <dbl>,
## #   total_snow <dbl>
…
temp_1960

## # A tibble: 36 x 8
##    dataset location date       extr_max_temp extr_min_temp mean_max_temp
##    <chr>   <chr>    <date>             <dbl>         <dbl>         <dbl>
##  1 ecclim… Badeck   1960-01-01           8.9         -16.7          -0.6
##  2 ecclim… Badeck   1960-02-01           6.1         -13.3           1.7
##  3 ecclim… Badeck   1960-03-01           7.2          -9.4           0.9
##  4 ecclim… Badeck   1960-04-01          16.7          -7.8           6.1
##  5 ecclim… Badeck   1960-05-01          26.7           2.2          17.2
##  6 ecclim… Badeck   1960-06-01          30.6           0            19.6
##  7 ecclim… Badeck   1960-07-01          28.3           8.9          22.6
##  8 ecclim… Badeck   1960-08-01          33.3           8.9          24.3
##  9 ecclim… Badeck   1960-09-01          25.6           4.4          19.8
## 10 ecclim… Badeck   1960-10-01          18.3          -0.6          12.3
## # … with 26 more rows, and 2 more variables: mean_min_temp <dbl>,
## #   mean_temp <dbl>
…
