Biplot a parameter-long data frame — long_pairs • mudata2
…
# get the raw data used
long_pairs(pocmaj_long, id_vars = c("core", "depth"), name_var = "param")
#> Using names_x = c("Ti", "Ca"), names_y = c("V", "Ti")
#> # A tibble: 36 x 6
#>    core  depth .name_x value_x .name_y value_y
#>    <chr> <int> <fct>     <dbl> <fct>     <dbl>
#>  1 MAJ-1     0 Ca        1885. Ti        2370.
#>  2 MAJ-1     1 Ca        1418  Ti        2409 
#>  3 MAJ-1     2 Ca        1550  Ti        2376 
#>  4 MAJ-1     3 Ca        1448  Ti        2485 
#>  5 MAJ-1     4 Ca        1247  Ti        2414 
#>  6 MAJ-1     5 Ca        1412. Ti        1897.
#>  7 POC-2     0 Ca        1622  Ti        2038 
#>  8 POC-2     1 Ca        1488  Ti        2016 
#>  9 POC-2     2 Ca        2416  Ti        3270 
#> 10 POC-2     3 Ca        2253  Ti        3197 
#> # … with 26 more rows
…
